<?xml version="1.0" encoding="utf-8"?>
<!-- Generator: Adobe Illustrator 25.0.0, SVG Export Plug-In . SVG Version: 6.00 Build 0)  -->
<svg version="1.1" id="Livello_1" xmlns="http://www.w3.org/2000/svg" xmlns:xlink="http://www.w3.org/1999/xlink" x="0px" y="0px"
	 viewBox="0 0 19.3 19.2" style="enable-background:new 0 0 19.3 19.2;" xml:space="preserve">
<path d="M19.1,4.5l-4.3-4.3c-0.2-0.2-0.5-0.2-0.7,0L0.2,14c-0.2,0.2-0.2,0.5,0,0.7L4.5,19c0.1,0.1,0.2,0.2,0.4,0.2l0,0l0,0
	c0.1,0,0.3-0.1,0.4-0.2L19.1,5.2C19.3,5,19.3,4.7,19.1,4.5z M5,15.3c0.2-0.2,0.1-0.6-0.1-0.7L3,12.7l1.4-1.4l0.8,0.8l0.1,0.1
	c0.2,0.2,0.6,0.1,0.7-0.1c0.1-0.1,0.1-0.3,0.1-0.4S6,11.5,5.9,11.4l-0.8-0.8l1.3-1.4l1.9,1.9l0.1,0.1c0.2,0.2,0.6,0.1,0.7-0.1
	c0.1-0.1,0.1-0.3,0.1-0.4c0-0.1-0.1-0.3-0.2-0.3L7.2,8.5l1.4-1.4L9.3,8l0.1,0.1C9.6,8.3,10,8.2,10.1,8c0.2-0.2,0.1-0.6-0.1-0.7
	L9.3,6.4L10.7,5l1.9,1.9L12.7,7c0.1,0.1,0.3,0.1,0.4,0.1c0.1,0,0.3-0.1,0.3-0.2c0.1-0.1,0.1-0.3,0.1-0.4s-0.1-0.3-0.2-0.3l-1.9-1.9
	L12.7,3l0.8,0.8C13.6,3.9,13.7,4,13.9,4c0.1,0,0.3-0.1,0.3-0.1c0.1-0.1,0.2-0.2,0.2-0.4c0-0.1,0-0.3-0.1-0.4l-0.8-0.8l1-1L18,4.8
	L4.9,18l-3.6-3.6l1-1l1.9,1.9l0.1,0.1C4.5,15.5,4.8,15.5,5,15.3z"/>
</svg>
